{
  "replace": false,
  "values": [
    "minequest:titanium_ore",
    "minequest:cobalt_ore",
    "minequest:platinum_ore",
    "minequest:uranium_ore",
    "minequest:tungsten_ore",
    "minequest:lithium_ore",
    "minequest:radium_ore",
    "minequest:nickel_ore",
    "minequest:zinc_ore",
    "minequest:manganese_ore",
    "minequest:vanadium_ore",
    "minequest:silver_ore",
    "minequest:cadmium_ore",
    "minequest:iridium_ore",
    "minequest:hafnium_ore",
    "minequest:tantalum_ore",
    "minequest:zirconium_ore",
    "minequest:palladium_ore",
    "minequest:yttrium_ore"
  ]
}