{
  "_fv": 24,
  "_type": "recipe",
  "definition": {
    "recipeType": "Blasting",
    "xpReward": 1.0,
    "cookingTime": 100,
    "recipeRetstackSize": 1,
    "group": "",
    "recipeShapeless": false,
    "blastingInputStack": {
      "value": "CUSTOM:CobaltOre"
    },
    "blastingReturnStack": {
      "value": "CUSTOM:CobaltIngot"
    },
    "name": "cobalt_blast",
    "namespace": "mod"
  }
}