{
  "_fv": 24,
  "_type": "recipe",
  "definition": {
    "recipeType": "Smelting",
    "xpReward": 1.0,
    "cookingTime": 200,
    "recipeRetstackSize": 1,
    "group": "",
    "recipeShapeless": false,
    "smeltingInputStack": {
      "value": "CUSTOM:HafniumOre"
    },
    "smeltingReturnStack": {
      "value": "CUSTOM:HafniumIngot"
    },
    "name": "hafnium_smelt",
    "namespace": "mod"
  }
}