{
  "parent": "block/cube",
  "textures": {
    "down": "minequest:blocks/titanium_ore",
    "up": "minequest:blocks/titanium_ore",
    "north": "minequest:blocks/titanium_ore",
    "east": "minequest:blocks/titanium_ore",
    "south": "minequest:blocks/titanium_ore",
    "west": "minequest:blocks/titanium_ore",
    "particle": "minequest:blocks/titanium_ore"
  }
}